{
    "version": 9,
    "configurePresets": [
        {
            "name": "configure-base",
            "hidden": true,
            "generator": "Ninja Multi-Config",
            "cacheVariables": {
            },
            "installDir":"${sourceDir}/dist",
            "binaryDir": "${sourceDir}/build"
        }
    ],
    "buildPresets": [
        {
            "name": "build-debug",
            "displayName": "Debug",
            "configurePreset": "configure-base",
            "configuration":"Debug"
        },
        {
            "name": "build-release",
            "displayName": "Release (with symbols)",
            "configurePreset": "configure-base",
            "configuration":"RelWithDebInfo"
        }
    ],
    "testPresets": []
}
